…
Let's take a quick look at the data once we're done reading it:


```julia
removed_columns = ["x-edge-location", "c-ip", "cs(Host)", "cs(Referer)", "cs-uri-query", "cs(Cookie)", "x-edge-result-type", "x-edge-request-id", "x-host-header", "cs-bytes", "time-taken", "x-forwarded-for", "ssl-protocol", "ssl-cipher", "x-edge-response-result-type", "cs-protocol-version", "fle-status", "fle-encrypted-fields", "c-port", "time-to-first-byte", "x-edge-detailed-result-type", "sc-content-len", "sc-range-start", "sc-range-end"]

df = CSV.read("logs/concatenated.csv", DataFrame)

df = select!(df, Not(removed_columns))

show(sort(df, order(:date, rev=true)), allcols=true)
```

    39404×9 DataFrame
       Row │ date        time      sc-bytes  cs-method  cs-uri-stem  sc-status  cs(User-Agent)                     cs-protocol  sc-content-type 
           │ Date        Time      Int64     String7    String       Int64      String                             String7      String31        
    ───────┼────────────────────────────────────────────────────────────────────────────────────────────────────────────────────────────────────
         1 │ 2022-04-21  00:08:44     11434  GET        /                  200  Expanse%20indexes%20customers%E2…  https        text/html
         2 │ 2022-04-21  00:09:08       581  GET        /                  301  Expanse%20indexes%20customers%E2…  http         text/html
         3 │ 2022-04-21  00:56:01       377  GET        /index.xml         304  Mozilla/5.0%20(compatible;%20Min…  https        -
         4 │ 2022-04-21  00:20:30      2256  GET        /index.xml         200  FreshRSS/1.19.2%20(Linux;%20http…  https        application/xml
         5 │ 2022-04-21  00:25:46      2657  GET        /index.xml         200  Mozilla/5.0%20(compatible;%20Min…  https        application/xml
         6 │ 2022-04-21  00:42:21     11444  GET        /                  200  Expanse%20indexes%20customers%E2…  https        text/html
         7 │ 2022-04-21  01:53:44      4107  GET        /                  200  Mozilla/5.0%20(Windows%20NT%206.…  https        text/html
         8 │ 2022-04-21  01:54:06      2655  GET        /index.xml         200  Mozilla/5.0%20(compatible;%20Min…  https        application/xml
         9 │ 2022-04-21  01:20:35     11435  GET        /                  200  Expanse%20indexes%20customers%E2…  https        text/html
        10 │ 2022-04-21  01:40:37      2269  GET        /index.xml         200  FreshRSS/1.19.2%20(Linux;%20http…  https        application/xml
        11 │ 2022-04-21  01:11:37       581  GET        /                  301  Expanse%20indexes%20customers%E2…  http         text/html
       ⋮   │     ⋮          ⋮         ⋮          ⋮           ⋮           ⋮                      ⋮                       ⋮              ⋮
     39395 │ 2021-08-31  22:47:08       590  GET        /kefu.php          301  Mozilla/5.0%20(Macintosh;%20Inte…  http         text/html
     39396 │ 2021-08-31  22:47:11       588  GET        /im/h5/            301  Mozilla/5.0%20(Macintosh;%20Inte…  http         text/html
     39397 │ 2021-08-31  22:47:11       590  GET        /info.php          301  Mozilla/5.0%20(Macintosh;%20Inte…  http         text/html
     39398 │ 2021-08-31  22:47:17         0  GET        /im/h5/              0  Mozilla/5.0%20(Macintosh;%20Inte…  https        -
     39399 │ 2021-08-31  22:47:13       582  GET        /                  301  Mozilla/5.0%20(Linux;%20Android%…  http         text/html
     39400 │ 2021-08-31  22:47:11         0  GET        /im/                 0  Mozilla/5.0%20(Macintosh;%20Inte…  https        -
     39401 │ 2021-08-31  22:47:19       591  GET        /mtja.html         301  Mozilla/5.0%20(Macintosh;%20Inte…  http         text/html
     39402 │ 2021-08-31  22:29:07       399  HEAD       /                  301  go-resty/2.3.0%20(https://github…  http         text/html
     39403 │ 2021-08-31  22:29:08       320  HEAD       /                  200  go-resty/2.3.0%20(https://github…  https        text/html
     39404 │ 2021-08-31  23:46:57       582  GET        /                  301  Mozilla/5.0%20(Macintosh;%20PPC%…  http         text/html
                                                                                                                              39383 rows omitted
…
```julia
show(
    sort(
        combine(
            groupby(filter("sc-status" => n -> n == 404, df), ["cs-uri-stem"]),
            nrow => :count
        ),
        [order(:count, rev = true)]
    ),
)
```

    458×2 DataFrame
     Row │ cs-uri-stem                        count 
         │ String                             Int64 
    ─────┼──────────────────────────────────────────
       1 │ /robots.txt                         2867
       2 │ /favicon.ico                         350
       3 │ /wp-login.php                        303
       4 │ /favicon.svg                         162
       5 │ /apple-touch-icon.png                125
       6 │ /image.png                           102
       7 │ /ads.txt                              46
       8 │ /humans.txt                           35
       9 │ /.env                                 30
      10 │ /.git/config                          18
      11 │ //wp-includes/wlwmanifest.xml         14
      ⋮  │                 ⋮                    ⋮
     449 │ /login                                 1
     450 │ /login.php                             1
     451 │ /login.aspx                            1
     452 │ /login/                                1
     453 │ /Login                                 1
     454 │ /login.html                            1
     455 │ /login.asp                             1
     456 │ /.aws                                  1
     457 │ /new/license.txt                       1
     458 │ /plugins/elfinder/connectors/php…      1
                                    437 rows omitted
…
```julia
show(
    sort(
        combine(
            groupby(filter("sc-status" => n -> n == 301, df), ["cs-uri-stem"]),
            nrow => :count
        ),
        [order(:count, rev = true)]
    ),
)
```

    691×2 DataFrame
     Row │ cs-uri-stem                        count 
         │ String                             Int64 
    ─────┼──────────────────────────────────────────
       1 │ /                                   3991
       2 │ /robots.txt                          478
       3 │ /wp-login.php                        300
       4 │ /favicon.ico                         245
       5 │ /ads.txt                              45
       6 │ /what.html                            45
       7 │ /humans.txt                           35
       8 │ /.env                                 33
       9 │ /style.css                            24
      10 │ /index.xml                            23
      11 │ /1.html                               23
      ⋮  │                 ⋮                    ⋮
     682 │ /info.php/_profiler/phpinfo            1
     683 │ /assets/elfinder/src/connectors/…      1
     684 │ /old/license.txt                       1
     685 │ /assets/plugins/elfinder/src/con…      1
     686 │ /admin/elfinder/src/connectors/p…      1
     687 │ /server-status                         1
     688 │ /.aws                                  1
     689 │ /new/license.txt                       1
     690 │ /plugins/elfinder/connectors/php…      1
     691 │ /118.html                              1
                                    670 rows omitted
…
